2017-12-05T01:09:09+00:00 NOTICE Unable to download GeoIP Database: cURL error 7: 
2017-12-05T01:09:09+00:00 NOTICE Unable to download GeoIP Database: cURL error 7: 
2018-01-05T15:07:09+00:00 NOTICE Unable to download GeoIP Database: cURL error 7: 
2018-01-05T15:07:09+00:00 NOTICE Unable to download GeoIP Database: cURL error 7: 
2018-02-05T04:19:20+00:00 NOTICE Unable to download GeoIP Database: cURL error 7: 
2018-02-05T04:19:20+00:00 NOTICE Unable to download GeoIP Database: cURL error 7: 
2018-03-06T21:38:29+00:00 NOTICE Unable to download GeoIP Database: cURL error 7: 
2018-03-06T21:38:29+00:00 NOTICE Unable to download GeoIP Database: cURL error 7: 
2018-04-06T01:14:59+00:00 NOTICE Unable to download GeoIP Database: cURL error 7: 
2018-04-06T01:14:59+00:00 NOTICE Unable to download GeoIP Database: cURL error 7: 
2018-05-06T13:30:47+00:00 NOTICE Unable to download GeoIP Database: cURL error 7: 
2018-05-06T13:30:47+00:00 NOTICE Unable to download GeoIP Database: cURL error 7: 
2018-06-06T11:19:09+00:00 NOTICE Unable to download GeoIP Database: cURL error 7: 
2018-06-06T11:19:09+00:00 NOTICE Unable to download GeoIP Database: cURL error 7: 
2018-07-06T13:43:14+00:00 NOTICE Unable to download GeoIP Database: cURL error 7: 
2018-07-06T13:43:14+00:00 NOTICE Unable to download GeoIP Database: cURL error 7: 
2018-08-06T06:23:55+00:00 NOTICE Unable to download GeoIP Database: cURL error 7: 
2018-08-06T06:23:55+00:00 NOTICE Unable to download GeoIP Database: cURL error 7: 
2018-09-06T20:19:26+00:00 NOTICE Unable to download GeoIP Database: cURL error 7: 
2018-09-06T20:19:26+00:00 NOTICE Unable to download GeoIP Database: cURL error 7: 
2018-10-06T14:47:01+00:00 NOTICE Unable to download GeoIP Database: cURL error 7: 
2018-10-06T14:47:01+00:00 NOTICE Unable to download GeoIP Database: cURL error 7: 
2018-11-05T12:14:45+00:00 NOTICE Unable to download GeoIP Database: cURL error 7: 
2018-11-05T12:14:46+00:00 NOTICE Unable to download GeoIP Database: cURL error 7: 
2018-12-06T00:00:03+00:00 NOTICE Unable to download GeoIP Database: cURL error 7: 
2018-12-06T00:00:03+00:00 NOTICE Unable to download GeoIP Database: cURL error 7: 
2019-01-05T16:06:22+00:00 NOTICE Unable to download GeoIP Database: cURL error 7: 
2019-01-05T16:06:22+00:00 NOTICE Unable to download GeoIP Database: cURL error 7: 
